{
    "app-id" : "com.fortress.apollo",
    "runtime" : "org.gnome.Platform",
    "runtime-version" : "44",
    "sdk" : "org.gnome.Sdk",
    "command" : "apollo",
    "finish-args" : [
        "--share=network",
        "--share=ipc",
        "--socket=fallback-x11",
        "--device=dri",
        "--socket=wayland",
        "--filesystem=host",
        "--socket=pulseaudio"
    ],
    "cleanup" : [
        "/include",
        "/lib/pkgconfig",
        "/man",
        "/share/doc",
        "/share/gtk-doc",
        "/share/man",
        "/share/pkgconfig",
        "*.la",
        "*.a"
    ],
    "modules" : [
        {
            "name": "mutagen",
            "buildsystem": "simple",
            "build-commands": [
                "pip3 install --no-index --find-links=\"file://${PWD}\" --prefix=${FLATPAK_DEST} mutagen"
            ],
            "sources": [
                {
                    "type": "file",
                    "url": "https://files.pythonhosted.org/packages/f3/d9/2232a4cb9a98e2d2501f7e58d193bc49c956ef23756d7423ba1bd87e386d/mutagen-1.45.1.tar.gz",
                    "sha256": "6397602efb3c2d7baebd2166ed85731ae1c1d475abca22090b7141ff5034b3e1"
                }
            ]
        },
        {
            "name": "tinytag",
            "buildsystem": "simple",
            "build-commands": [
                "pip3 install --no-index --find-links=\"file://${PWD}\" --prefix=${FLATPAK_DEST} tinytag"
            ],
            "sources": [
                {
                    "type": "file",
                    "url": "https://files.pythonhosted.org/packages/0b/19/070bfa9fe5fa2bf220282842621ec48b03896213683de284fdf727e8fd93/tinytag-1.8.1.tar.gz",
                    "sha256": "363ab3107831a5598b68aaa061aba915fb1c7b4254d770232e65d5db8487636d"
                }
            ]
        },
        {
            "name": "musicbrainzngs",
            "buildsystem": "simple",
            "build-commands": [
                "pip3 install --no-index --find-links=\"file://${PWD}\" --prefix=${FLATPAK_DEST} musicbrainzngs"
            ],
            "sources": [
                {
                    "type": "file",
                    "url": "https://files.pythonhosted.org/packages/6d/fd/cef7b2580436910ccd2f8d3deec0f3c81743e15c0eb5b97dde3fbf33c0c8/musicbrainzngs-0.7.1-py2.py3-none-any.whl",
                    "sha256": "e841a8f975104c0a72290b09f59326050194081a5ae62ee512f41915090e1a10"
                }
            ]
        },
	{
            "name": "soupsieve",
            "buildsystem": "simple",
            "build-commands": [
                "pip3 install --no-index --find-links=\"file://${PWD}\" --prefix=${FLATPAK_DEST} soupsieve"
            ],
            "sources": [
                {
                    "type": "file",
                    "url": "https://files.pythonhosted.org/packages/7d/1e/294d3cb3fc81212914043beba5eeb38882c0b449402353c549745e823fcf/soupsieve-2.3.2-py3-none-any.whl",
                    "sha256": "a714129d3021ec17ce5be346b1007300558b378332c289a1a20e7d4de6ff18a5"
                }
            ]
        },
	{
            "name": "beautifulsoup4",
            "buildsystem": "simple",
            "build-commands": [
                "pip3 install --no-index --find-links=\"file://${PWD}\" --prefix=${FLATPAK_DEST} beautifulsoup4"
            ],
            "sources": [
                {
                    "type": "file",
                    "url": "https://files.pythonhosted.org/packages/9c/d8/909c4089dbe4ade9f9705f143c9f13f065049a9d5e7d34c828aefdd0a97c/beautifulsoup4-4.11.1-py3-none-any.whl",
                    "sha256": "58d5c3d29f5a36ffeb94f02f0d786cd53014cf9b3b3951d42e0080d8a9498d30"
                }
            ]
        },
	{
            "name": "urllib3",
            "buildsystem": "simple",
            "build-commands": [
                "pip3 install --no-index --find-links=\"file://${PWD}\" --prefix=${FLATPAK_DEST} urllib3"
            ],
            "sources": [
                {
                    "type": "file",
                    "url": "https://files.pythonhosted.org/packages/6f/de/5be2e3eed8426f871b170663333a0f627fc2924cc386cd41be065e7ea870/urllib3-1.26.12-py2.py3-none-any.whl",
                    "sha256": "b930dd878d5a8afb066a637fbb35144fe7901e3b209d1cd4f524bd0e9deee997"
                }
            ]
        },
        {
            "name" : "apollo",
            "builddir" : true,
            "buildsystem" : "meson",
            "sources" : [
                {
                    "type" : "git",
                    "url" : "https://gitlab.com/franco4tress/apollo",
                    "branch" : "main"
                }
            ]
        }
    ]
}
